// Jest Snapshot v1, https://goo.gl/fbAQLP

exports[`should render Form component for posts creation 1`] = `
Array [
  <input
    class="ant-input css-dev-only-do-not-override-18iikkb sc-dkjKgF irCDMR"
    data-testid="search-input"
    placeholder="Search Name"
    type="text"
    value="asd"
  />,
]
`;
